Statistical Modeling in R + tidymodels
…
### Prediction 

Predicting the weights of the penguins from the test dataset 

```r
pred <- predict(lm_fit, new_data = test_data)

pred
```

```
# A tibble: 86 x 1
   .pred
   <dbl>
 1 3590.
 2 3285.
 3 4075.
 4 4158.
 5 3336.
 6 4243.
 7 3232.
 8 3559.
 9 3496.
10 3913.
# ... with 76 more rows
```
…
### Check for accuracy 

### 1) Bind test results to original test dataset 

```r
test_results <- predict(lm_fit, new_data = test_data) |>
  bind_cols(test_data)

#View Results
test_results
```

```
# A tibble: 86 x 9
   .pred species island    bill_length_mm bill_depth_mm flipper_length_mm
   <dbl> <fct>   <fct>              <dbl>         <dbl>             <int>
 1 3590. Adelie  Torgersen           40.3          18                 195
 2 3285. Adelie  Torgersen           38.9          17.8               181
 3 4075. Adelie  Torgersen           38.6          21.2               191
 4 4158. Adelie  Torgersen           34.6          21.1               198
 5 3336. Adelie  Torgersen           36.6          17.8               185
 6 4243. Adelie  Torgersen           46            21.5               194
 7 3232. Adelie  Biscoe              37.8          18.3               174
 8 3559. Adelie  Biscoe              35.9          19.2               189
 9 3496. Adelie  Biscoe              40.5          17.9               187
10 3913. Adelie  Dream               40.9          18.9               184
# ... with 76 more rows, and 3 more variables: body_mass_g <int>, sex <fct>,
#   year <int>
```
…
